<?xml version="1.0" encoding="utf-8"?>
<!-- Generator: Adobe Illustrator 25.2.0, SVG Export Plug-In . SVG Version: 6.00 Build 0)  -->
<svg version="1.1" id="Layer_1" xmlns="http://www.w3.org/2000/svg" xmlns:xlink="http://www.w3.org/1999/xlink" x="0px" y="0px"
	 viewBox="0 0 161.74 161.74" style="enable-background:new 0 0 161.74 161.74;" xml:space="preserve">
<style type="text/css">
	.st0{opacity:0.5;fill:#385FAC;}
	.st1{fill:#385FAC;}
</style>
<g>
	<path class="st0" d="M101.05,114.77h2.32c10.88,0,19.69-8.82,19.69-19.69V66.15c0-1.71-1.39-3.09-3.09-3.09H84.45
		c-1.71,0-3.09,1.39-3.09,3.09v28.93C81.36,105.95,90.17,114.77,101.05,114.77z"/>
	<circle class="st0" cx="102.21" cy="47.3" r="11.83"/>
	<path class="st1" d="M63.36,135.28h3.23c15.19,0,27.5-12.31,27.5-27.5v-40.4c0-2.39-1.94-4.32-4.32-4.32H40.18
		c-2.39,0-4.32,1.94-4.32,4.32v40.4C35.86,122.97,48.17,135.28,63.36,135.28z"/>
	<circle class="st1" cx="64.98" cy="42.61" r="16.52"/>
</g>
</svg>
