<?xml version="1.0" encoding="utf-8"?>
<!-- Generator: Adobe Illustrator 25.2.0, SVG Export Plug-In . SVG Version: 6.00 Build 0)  -->
<svg version="1.1" id="Layer_1" xmlns="http://www.w3.org/2000/svg" xmlns:xlink="http://www.w3.org/1999/xlink" x="0px" y="0px"
	 viewBox="0 0 161.74 161.74" style="enable-background:new 0 0 161.74 161.74;" xml:space="preserve">
<style type="text/css">
	.st0{fill:#FFFFFF;}
</style>
<g>
	<path class="st0" d="M79.23,52.54c2.47,0,4.92,0,7.39,0c0,10.52,0,21.01,0,31.49h43.95c0-0.03,0-0.06,0-0.09
		c2.71-0.02,5.67,0.46,6.83-2.96c0-8.72,0-17.44,0-26.16c-0.97-2.21-2.7-2.86-5.03-2.81c-4.92,0.11-9.85,0.03-14.78,0.03
		c-0.38,0-0.75,0-1,0c0.44-1.77,1.06-3.45,1.26-5.18c0.96-8.61-5.8-15.88-14.45-15.71c-6.39,0.13-11.43,3-15.5,7.68
		c-1.84,2.12-3.35,4.52-4.88,6.63c-1.56-2.13-3.1-4.57-4.98-6.71c-4.45-5.08-9.98-7.91-16.92-7.57c-7.84,0.39-14.27,8.27-12.93,16
		c0.28,1.62,0.82,3.19,1.26,4.85c-0.3,0-0.68,0-1.06,0c-5.21,0-10.42,0-15.63,0c-2.8,0-4.27,1.47-4.27,4.25c0,7.8-0.01,15.6,0,23.39
		c0,2.71,1.5,4.2,4.21,4.23c0.88,0.01,1.76,0,2.78,0c0,0.04,0,0.07,0,0.11h43.76C79.23,73.54,79.23,63.05,79.23,52.54z M99.11,39.58
		c2.59-1.13,5.31-1.55,7.97-0.05c2.54,1.43,3.85,4.34,3.28,7.23c-0.55,2.78-2.79,4.83-5.71,5.21c-0.04,0-0.07,0.01-0.11,0.01
		c-5.34,0-10.67,0-16.23,0C90.86,46.75,93.63,41.95,99.11,39.58z M62.05,52.01c-3.87-0.07-6.69-3.14-6.54-6.89
		c0.15-3.71,3.24-6.55,7.02-6.49c2.33,0.04,4.47,0.74,6.39,2.01c4.17,2.76,6.63,6.85,8.74,11.4C72.32,52.03,67.18,52.1,62.05,52.01z
		"/>
	<path class="st0" d="M86.62,135.92c13.1,0,26.19,0,39.29,0c0.39,0,0.78,0,1.17-0.03c1.69-0.12,3.01-1.24,3.36-2.9
		c0.12-0.55,0.13-1.13,0.13-1.69c0.01-15.31,0.01-30.62,0.01-45.94c0-0.21,0-0.42,0-0.65H86.62
		C86.62,101.8,86.62,118.85,86.62,135.92z"/>
	<path class="st0" d="M35.47,85.36c0,15.35,0,30.7,0.01,46.04c0,0.6,0,1.22,0.14,1.79c0.4,1.56,1.69,2.58,3.3,2.7
		c0.39,0.03,0.78,0.03,1.17,0.03c13.05,0,26.09,0,39.14,0c0-17.09,0-34.15,0-51.21H35.47C35.47,84.93,35.47,85.15,35.47,85.36z"/>
</g>
</svg>
